…
## Part 2: Learning function from Tidyverse

- Function `tibble()` from package [tibble](https://tibble.tidyverse.org/). It using for create table

```
tibble(x =0:20 , y = -(x^2) , z =x+y)
```

```
# A tibble: 21 x 3
       x     y     z
   <int> <dbl> <dbl>
 1     0     0     0
 2     1    -1     0
 3     2    -4    -2
 4     3    -9    -6
 5     4   -16   -12
 6     5   -25   -20
 7     6   -36   -30
 8     7   -49   -42
 9     8   -64   -56
10     9   -81   -72
# ... with 11 more rows
```
…
